{
  "images" : [
    {
      "idiom" : "iphone",
      "filename" : "user.png",
      "scale" : "1x"
    },
    {
      "idiom" : "iphone",
      "filename" : "user-1.png",
      "scale" : "2x"
    },
    {
      "idiom" : "iphone",
      "filename" : "user-2.png",
      "scale" : "3x"
    },
    {
      "idiom" : "ipad",
      "filename" : "user-3.png",
      "scale" : "1x"
    },
    {
      "idiom" : "ipad",
      "filename" : "user-4.png",
      "scale" : "2x"
    }
  ],
  "info" : {
    "version" : 1,
    "author" : "xcode"
  }
}