{
  "images" : [
    {
      "idiom" : "universal",
      "filename" : "arrow2_i5.png",
      "scale" : "1x"
    },
    {
      "idiom" : "universal",
      "filename" : "arrow2_i6.png",
      "scale" : "2x"
    },
    {
      "idiom" : "universal",
      "filename" : "arrow2_i6_plus.png",
      "scale" : "3x"
    }
  ],
  "info" : {
    "version" : 1,
    "author" : "xcode"
  }
}