{
  "images" : [
    {
      "idiom" : "iphone",
      "filename" : "menu_ico_5.png",
      "scale" : "1x"
    },
    {
      "idiom" : "iphone",
      "filename" : "menu_ico_5-1.png",
      "scale" : "2x"
    },
    {
      "idiom" : "iphone",
      "filename" : "menu_ico_5-2.png",
      "scale" : "3x"
    },
    {
      "idiom" : "ipad",
      "filename" : "menu_ico_5-3.png",
      "scale" : "1x"
    },
    {
      "idiom" : "ipad",
      "filename" : "menu_ico_5-4.png",
      "scale" : "2x"
    }
  ],
  "info" : {
    "version" : 1,
    "author" : "xcode"
  }
}