{
  "images" : [
    {
      "idiom" : "iphone",
      "filename" : "vehicle-2.png",
      "scale" : "1x"
    },
    {
      "idiom" : "iphone",
      "filename" : "vehicle-3.png",
      "scale" : "2x"
    },
    {
      "idiom" : "iphone",
      "filename" : "vehicle-4.png",
      "scale" : "3x"
    },
    {
      "idiom" : "ipad",
      "filename" : "vehicle-5.png",
      "scale" : "1x"
    },
    {
      "idiom" : "ipad",
      "filename" : "vehicle-6.png",
      "scale" : "2x"
    }
  ],
  "info" : {
    "version" : 1,
    "author" : "xcode"
  }
}