{
  "images" : [
    {
      "idiom" : "iphone",
      "filename" : "clint-login-icon.png",
      "scale" : "1x"
    },
    {
      "idiom" : "iphone",
      "filename" : "clint-login-icon-1.png",
      "scale" : "2x"
    },
    {
      "idiom" : "iphone",
      "filename" : "clint-login-icon-2.png",
      "scale" : "3x"
    },
    {
      "idiom" : "ipad",
      "filename" : "clint-login-icon-3.png",
      "scale" : "1x"
    },
    {
      "idiom" : "ipad",
      "filename" : "clint-login-icon-4.png",
      "scale" : "2x"
    }
  ],
  "info" : {
    "version" : 1,
    "author" : "xcode"
  }
}