{
  "images" : [
    {
      "idiom" : "universal",
      "scale" : "1x",
      "filename" : "Pin_Copy.png"
    },
    {
      "idiom" : "universal",
      "scale" : "2x",
      "filename" : "Pin_Copy@2x.png"
    },
    {
      "idiom" : "universal",
      "scale" : "3x",
      "filename" : "Pin_Copy@3x.png"
    }
  ],
  "info" : {
    "author" : "xcode",
    "version" : "1"
  }
}