{
  "images" : [
    {
      "idiom" : "iphone",
      "filename" : "close-9.png",
      "scale" : "1x"
    },
    {
      "idiom" : "iphone",
      "filename" : "close-10.png",
      "scale" : "2x"
    },
    {
      "idiom" : "iphone",
      "filename" : "close-11.png",
      "scale" : "3x"
    },
    {
      "idiom" : "ipad",
      "filename" : "close-12.png",
      "scale" : "1x"
    },
    {
      "idiom" : "ipad",
      "filename" : "close-13.png",
      "scale" : "2x"
    }
  ],
  "info" : {
    "version" : 1,
    "author" : "xcode"
  }
}