{
  "images" : [
    {
      "idiom" : "iphone",
      "filename" : "eye-select.png",
      "scale" : "1x"
    },
    {
      "idiom" : "iphone",
      "filename" : "eye-select-1.png",
      "scale" : "2x"
    },
    {
      "idiom" : "iphone",
      "filename" : "eye-select-2.png",
      "scale" : "3x"
    },
    {
      "idiom" : "ipad",
      "filename" : "eye-select-3.png",
      "scale" : "1x"
    },
    {
      "idiom" : "ipad",
      "filename" : "eye-select-4.png",
      "scale" : "2x"
    }
  ],
  "info" : {
    "version" : 1,
    "author" : "xcode"
  }
}